%YAML 1.1
%TAG !u! tag:unity3d.com,2011:
--- !u!74 &7400000
AnimationClip:
  m_ObjectHideFlags: 0
  m_PrefabParentObject: {fileID: 0}
  m_PrefabInternal: {fileID: 0}
  m_Name: animacao_cavaleiro
  serializedVersion: 6
  m_Legacy: 0
  m_Compressed: 0
  m_UseHighQualityCurve: 1
  m_RotationCurves: []
  m_CompressedRotationCurves: []
  m_PositionCurves: []
  m_ScaleCurves: []
  m_FloatCurves: []
  m_PPtrCurves:
  - curve:
    - time: 0
      value: {fileID: 21300000, guid: cff7aa8319ad49d4ba6a12ece2a5c4ca, type: 3}
    - time: .0666666701
      value: {fileID: 21300002, guid: cff7aa8319ad49d4ba6a12ece2a5c4ca, type: 3}
    - time: .13333334
      value: {fileID: 21300004, guid: cff7aa8319ad49d4ba6a12ece2a5c4ca, type: 3}
    - time: .200000003
      value: {fileID: 21300006, guid: cff7aa8319ad49d4ba6a12ece2a5c4ca, type: 3}
    - time: .266666681
      value: {fileID: 21300008, guid: cff7aa8319ad49d4ba6a12ece2a5c4ca, type: 3}
    - time: .333333343
      value: {fileID: 21300010, guid: cff7aa8319ad49d4ba6a12ece2a5c4ca, type: 3}
    - time: .400000006
      value: {fileID: 21300012, guid: cff7aa8319ad49d4ba6a12ece2a5c4ca, type: 3}
    - time: .466666669
      value: {fileID: 21300014, guid: cff7aa8319ad49d4ba6a12ece2a5c4ca, type: 3}
    - time: .533333361
      value: {fileID: 21300016, guid: cff7aa8319ad49d4ba6a12ece2a5c4ca, type: 3}
    - time: .600000024
      value: {fileID: 21300018, guid: cff7aa8319ad49d4ba6a12ece2a5c4ca, type: 3}
    - time: .666666687
      value: {fileID: 21300020, guid: cff7aa8319ad49d4ba6a12ece2a5c4ca, type: 3}
    - time: .733333349
      value: {fileID: 21300022, guid: cff7aa8319ad49d4ba6a12ece2a5c4ca, type: 3}
    - time: .800000012
      value: {fileID: 21300024, guid: cff7aa8319ad49d4ba6a12ece2a5c4ca, type: 3}
    - time: .866666675
      value: {fileID: 21300026, guid: cff7aa8319ad49d4ba6a12ece2a5c4ca, type: 3}
    - time: .933333337
      value: {fileID: 21300028, guid: cff7aa8319ad49d4ba6a12ece2a5c4ca, type: 3}
    - time: 1
      value: {fileID: 21300030, guid: cff7aa8319ad49d4ba6a12ece2a5c4ca, type: 3}
    - time: 1.06666672
      value: {fileID: 21300032, guid: cff7aa8319ad49d4ba6a12ece2a5c4ca, type: 3}
    - time: 1.13333333
      value: {fileID: 21300034, guid: cff7aa8319ad49d4ba6a12ece2a5c4ca, type: 3}
    - time: 1.20000005
      value: {fileID: 21300036, guid: cff7aa8319ad49d4ba6a12ece2a5c4ca, type: 3}
    - time: 1.26666665
      value: {fileID: 21300038, guid: cff7aa8319ad49d4ba6a12ece2a5c4ca, type: 3}
    - time: 1.33333337
      value: {fileID: 21300040, guid: cff7aa8319ad49d4ba6a12ece2a5c4ca, type: 3}
    - time: 1.39999998
      value: {fileID: 21300042, guid: cff7aa8319ad49d4ba6a12ece2a5c4ca, type: 3}
    - time: 1.4666667
      value: {fileID: 21300044, guid: cff7aa8319ad49d4ba6a12ece2a5c4ca, type: 3}
    - time: 1.5333333
      value: {fileID: 21300046, guid: cff7aa8319ad49d4ba6a12ece2a5c4ca, type: 3}
    attribute: m_Sprite
    path: 
    classID: 212
    script: {fileID: 0}
  m_SampleRate: 15
  m_WrapMode: 0
  m_Bounds:
    m_Center: {x: 0, y: 0, z: 0}
    m_Extent: {x: 0, y: 0, z: 0}
  m_ClipBindingConstant:
    genericBindings:
    - path: 0
      attribute: 0
      script: {fileID: 0}
      classID: 212
      customType: 23
      isPPtrCurve: 1
    pptrCurveMapping:
    - {fileID: 21300000, guid: cff7aa8319ad49d4ba6a12ece2a5c4ca, type: 3}
    - {fileID: 21300002, guid: cff7aa8319ad49d4ba6a12ece2a5c4ca, type: 3}
    - {fileID: 21300004, guid: cff7aa8319ad49d4ba6a12ece2a5c4ca, type: 3}
    - {fileID: 21300006, guid: cff7aa8319ad49d4ba6a12ece2a5c4ca, type: 3}
    - {fileID: 21300008, guid: cff7aa8319ad49d4ba6a12ece2a5c4ca, type: 3}
    - {fileID: 21300010, guid: cff7aa8319ad49d4ba6a12ece2a5c4ca, type: 3}
    - {fileID: 21300012, guid: cff7aa8319ad49d4ba6a12ece2a5c4ca, type: 3}
    - {fileID: 21300014, guid: cff7aa8319ad49d4ba6a12ece2a5c4ca, type: 3}
    - {fileID: 21300016, guid: cff7aa8319ad49d4ba6a12ece2a5c4ca, type: 3}
    - {fileID: 21300018, guid: cff7aa8319ad49d4ba6a12ece2a5c4ca, type: 3}
    - {fileID: 21300020, guid: cff7aa8319ad49d4ba6a12ece2a5c4ca, type: 3}
    - {fileID: 21300022, guid: cff7aa8319ad49d4ba6a12ece2a5c4ca, type: 3}
    - {fileID: 21300024, guid: cff7aa8319ad49d4ba6a12ece2a5c4ca, type: 3}
    - {fileID: 21300026, guid: cff7aa8319ad49d4ba6a12ece2a5c4ca, type: 3}
    - {fileID: 21300028, guid: cff7aa8319ad49d4ba6a12ece2a5c4ca, type: 3}
    - {fileID: 21300030, guid: cff7aa8319ad49d4ba6a12ece2a5c4ca, type: 3}
    - {fileID: 21300032, guid: cff7aa8319ad49d4ba6a12ece2a5c4ca, type: 3}
    - {fileID: 21300034, guid: cff7aa8319ad49d4ba6a12ece2a5c4ca, type: 3}
    - {fileID: 21300036, guid: cff7aa8319ad49d4ba6a12ece2a5c4ca, type: 3}
    - {fileID: 21300038, guid: cff7aa8319ad49d4ba6a12ece2a5c4ca, type: 3}
    - {fileID: 21300040, guid: cff7aa8319ad49d4ba6a12ece2a5c4ca, type: 3}
    - {fileID: 21300042, guid: cff7aa8319ad49d4ba6a12ece2a5c4ca, type: 3}
    - {fileID: 21300044, guid: cff7aa8319ad49d4ba6a12ece2a5c4ca, type: 3}
    - {fileID: 21300046, guid: cff7aa8319ad49d4ba6a12ece2a5c4ca, type: 3}
  m_AnimationClipSettings:
    serializedVersion: 2
    m_StartTime: 0
    m_StopTime: 1.60000002
    m_OrientationOffsetY: 0
    m_Level: 0
    m_CycleOffset: 0
    m_LoopTime: 1
    m_LoopBlend: 0
    m_LoopBlendOrientation: 0
    m_LoopBlendPositionY: 0
    m_LoopBlendPositionXZ: 0
    m_KeepOriginalOrientation: 0
    m_KeepOriginalPositionY: 1
    m_KeepOriginalPositionXZ: 0
    m_HeightFromFeet: 0
    m_Mirror: 0
  m_EditorCurves: []
  m_EulerEditorCurves: []
  m_HasGenericRootTransform: 0
  m_HasMotionFloatCurves: 0
  m_GenerateMotionCurves: 0
  m_Events: []
