%YAML 1.1
%TAG !u! tag:unity3d.com,2011:
--- !u!114 &11400000
MonoBehaviour:
  m_ObjectHideFlags: 0
  m_PrefabParentObject: {fileID: 0}
  m_PrefabInternal: {fileID: 0}
  m_GameObject: {fileID: 0}
  m_Enabled: 1
  m_EditorHideFlags: 0
  m_Script: {fileID: 11500000, guid: 2dc02f354b01a114c87eb93c7a3fc58b, type: 3}
  m_Name: Historia_muitolouca
  m_EditorClassIdentifier: 
  cavaleiro: 0
  PecadoCavaleiro: 4
  idiota: 0
  PecadoIdiota: 3
  princesa: 2
  PecadoPrincesa: 1
  bobo: 3
  PecadoBobo: 6
  EntranceDialog:
  - Personagem: 0
    linha: teste
  - Personagem: 2
    linha: teste2
  GameDialogs:
  - Personagem: 0
    Assassino_RespostaNeutra:
    - Sin: 0
      linha: []
    - Sin: 0
      linha: []
    - Sin: 0
      linha: []
    - Sin: 0
      linha: []
    - Sin: 0
      linha: []
    - Sin: 0
      linha: []
    - Sin: 0
      linha: []
    Assassino_RespostaPositiva: []
    Assassino_RespostaIrritada: []
    Joker_RespostaNeutra: []
    Joker_RespostaPositiva: []
    Joker_RespostaIrritada: []
    Neutro_RespostaNeutra: []
    Neutro_RespostaPositiva: []
    Neutro_RespostaIrritada: []
  - Personagem: 0
    Assassino_RespostaNeutra: []
    Assassino_RespostaPositiva: []
    Assassino_RespostaIrritada: []
    Joker_RespostaNeutra: []
    Joker_RespostaPositiva: []
    Joker_RespostaIrritada: []
    Neutro_RespostaNeutra: []
    Neutro_RespostaPositiva: []
    Neutro_RespostaIrritada: []
  - Personagem: 0
    Assassino_RespostaNeutra: []
    Assassino_RespostaPositiva: []
    Assassino_RespostaIrritada: []
    Joker_RespostaNeutra: []
    Joker_RespostaPositiva: []
    Joker_RespostaIrritada: []
    Neutro_RespostaNeutra: []
    Neutro_RespostaPositiva: []
    Neutro_RespostaIrritada: []
  - Personagem: 0
    Assassino_RespostaNeutra: []
    Assassino_RespostaPositiva: []
    Assassino_RespostaIrritada: []
    Joker_RespostaNeutra: []
    Joker_RespostaPositiva: []
    Joker_RespostaIrritada: []
    Neutro_RespostaNeutra: []
    Neutro_RespostaPositiva: []
    Neutro_RespostaIrritada: []
  sharonDialogs:
  - neutralResponse:
    - aaa
    goodResponse:
    - sss
    badResponse:
    - ddd
    sendToHeaven:
    - xxx
    sendToHell:
    - fff
    FullHell: []
    vaiProInfernoPqTeAchei: []
    onePerFloor: []
    heavenConsideration: []
    exitLine:
    - zxzx
