%YAML 1.1
%TAG !u! tag:unity3d.com,2011:
--- !u!114 &11400000
MonoBehaviour:
  m_ObjectHideFlags: 0
  m_PrefabParentObject: {fileID: 0}
  m_PrefabInternal: {fileID: 0}
  m_GameObject: {fileID: 0}
  m_Enabled: 1
  m_EditorHideFlags: 0
  m_Script: {fileID: 11500000, guid: 2dc02f354b01a114c87eb93c7a3fc58b, type: 3}
  m_Name: teste
  m_EditorClassIdentifier: 
  cavaleiro: 0
  PecadoCavaleiro: 0
  idiota: 0
  PecadoIdiota: 0
  princesa: 0
  PecadoPrincesa: 0
  bobo: 1
  PecadoBobo: 0
  EntranceDialog: []
  GameDialogs: []
  sharonDialogs: []
